ESS330: Lab 8 - Hyperparameter Tuning QMD – nevamorgan-lab6.github.io
…
print(metrics)

function (data, ...) 
{
    UseMethod("metrics")
}
<bytecode: 0x0000012bd0a3af90>
<environment: namespace:yardstick>

collect_metrics(tuned_results) %>%
  filter(.metric == "rmse") %>%
  arrange(mean)

# A tibble: 25 × 8
    mtry min_n .metric .estimator  mean     n std_err .config              
   <int> <int> <chr>   <chr>      <dbl> <int>   <dbl> <chr>                
 1    37    40 rmse    standard   0.521    10  0.0194 Preprocessor1_Model05
 2    49    38 rmse    standard   0.522    10  0.0190 Preprocessor1_Model10
 3    12    36 rmse    standard   0.522    10  0.0194 Preprocessor1_Model17
 4    19    34 rmse    standard   0.523    10  0.0199 Preprocessor1_Model08
 5    56    35 rmse    standard   0.523    10  0.0199 Preprocessor1_Model04
 6    10    29 rmse    standard   0.525    10  0.0197 Preprocessor1_Model21
 7     2    24 rmse    standard   0.525    10  0.0192 Preprocessor1_Model06
 8    22    31 rmse    standard   0.526    10  0.0194 Preprocessor1_Model16
 9    34    27 rmse    standard   0.526    10  0.0199 Preprocessor1_Model03
10    14    30 rmse    standard   0.526    10  0.0196 Preprocessor1_Model19
# ℹ 15 more rows
…
